{
  "$schema": "https://json.schemastore.org/nest-cli",
  "collection": "@nestjs/schematics",
  "sourceRoot": "apps/ecommerce/src",
  "compilerOptions": {
    "deleteOutDir": true,
    "webpack": true,
    "tsConfigPath": "apps/ecommerce/tsconfig.app.json"
  },
  "monorepo": true,
  "root": "apps/ecommerce",
  "projects": {
    "ecommerce": {
      "type": "application",
      "root": "apps/ecommerce",
      "entryFile": "main",
      "sourceRoot": "apps/ecommerce/src",
      "compilerOptions": {
        "tsConfigPath": "apps/ecommerce/tsconfig.app.json"
      }
    },
    "user": {
      "type": "application",
      "root": "apps/user",
      "entryFile": "main",
      "sourceRoot": "apps/user/src",
      "compilerOptions": {
        "tsConfigPath": "apps/user/tsconfig.app.json"
      }
    },
    "product": {
      "type": "application",
      "root": "apps/product",
      "entryFile": "main",
      "sourceRoot": "apps/product/src",
      "compilerOptions": {
        "tsConfigPath": "apps/product/tsconfig.app.json"
      }
    },
    "shared": {
      "type": "library",
      "root": "libs/shared",
      "entryFile": "index",
      "sourceRoot": "libs/shared/src",
      "compilerOptions": {
        "tsConfigPath": "libs/shared/tsconfig.lib.json"
      }
    },
    "auth": {
      "type": "library",
      "root": "libs/auth",
      "entryFile": "index",
      "sourceRoot": "libs/auth/src",
      "compilerOptions": {
        "tsConfigPath": "libs/auth/tsconfig.lib.json"
      }
    }
  }
}